{
  "one": {
    "name": "One Drop Tournament"
  },
  "two": {
    "name": "Two Star Championship"
  },
  "three": {
    "name": "Three Musketeers Cup"
  },
  "dinamik-12": {
    "name": "Dinamik 12",
    "teks": "Dinamik 12 adalah lomba yang diadakan oleh prodi FPMIPA UPI setiap tahunnya."
  }
}
